16808 475532 449
651696 944643 525
110075 211743 383
27646 852336 525
779382 239717 509
565264 439281 470
486277 243117 449
808102 523641 509
283769 531746 470
379664 542756 470
545200 834644 509
818974 99156 509
131378 572065 470
493297 281683 449
352710 796841 509
901052 809463 525
614076 929369 525
725391 878338 525
582338 380774 470
238708 559606 470
512498 12783 470
902945 820954 525
126885 91902 354
426585 895991 525
640780 187295 509
36648 922179 525
617219 358535 470
516440 571848 452
789169 704124 504
511483 61034 449
729665 455750 509
729658 118710 509
799920 807914 406
541549 847603 525
310264 375092 441
261374 939806 525
29231 409976 443
625003 390812 470
741084 554644 509
341061 3324 443
725893 220364 509
75664 447980 449
548382 935547 525
31687 811962 509
321598 196207 443
782689 821781 468
800259 247985 509
408022 733383 509
937601 132145 525
355017 54037 443
852655 845902 419
784488 956211 525
111468 620586 470
154901 982468 525
723442 478975 509
623661 947838 525
960936 846088 507
854977 268107 525
98486 880856 525
829503 90693 509
400456 674147 509
441601 688898 509
716453 327493 509
121128 205046 383
471395 911644 525
799847 286766 509
842405 181316 525
531596 634654 509
186769 825029 509
974932 861717 507
249858 726883 509
315933 153376 443
633728 820668 504
555945 111893 470
437877 78056 449
498969 938162 525
649366 975748 525
584140 346575 470
112562 558159 470
950240 587851 525
236656 130530 443
46650 477207 449
935299 331031 525
897136 988149 507
714401 141416 509
725508 917296 525
941561 319087 525
607997 560375 434
437094 145450 449
810305 765925 468
598136 308189 470
197010 757540 509
400647 242848 441
414956 896837 525
141161 684269 509
29157 533055 470
337025 701671 509
163249 664527 509
48086 797370 509
455623 25924 449
576724 978803 525
880938 592446 525
89521 302437 443
114146 741138 509
122892 120287 336
490792 412430 444
976770 122778 525
731529 831748 468
535528 274895 470
824354 667 509
739238 402996 509
978990 2917 525
64300 998489 525
831308 690796 504
540985 458270 470
470732 302472 449
121263 919283 525
114723 641914 509
851870 828973 525
30872 223875 386
17574 304400 443
17860 269239 443
171748 233957 443
588822 863438 525
964603 603655 525
277846 887640 525
762469 941559 525
429337 55747 449
646669 497193 509
796972 199811 509
396942 638555 509
42213 530356 470
689570 996575 525
244514 588719 470
76912 992380 525
749362 839560 525
205038 134835 383
423051 961207 525
308317 339388 384
226458 925756 525
542393 301437 470
938966 484909 525
103029 350142 443
35042 7921 311
660669 848079 525
879988 725468 525
580675 266036 470
650949 264826 509
181245 46686 383
665800 756883 504
171549 928841 525
786068 281727 509
205522 661729 509
495858 570970 470
884519 194151 525
609793 842263 525
516747 697839 509
953886 659776 525
187665 222059 386
228921 322462 443
476566 796933 509
984720 621270 525
624011 49898 470
307301 977460 525
577144 239514 470
861145 55669 525
999721 638264 525
980380 862033 507
777854 69129 509
15710 294493 443
646923 209183 509
671059 676111 385
838655 843267 388
340990 986945 525
545726 775846 509
562224 251535 470
930456 602661 525
500473 968741 525
26797 343324 443
314893 722138 509
778344 106135 509
861506 788024 525
820592 64939 509
548320 247353 470
855925 425116 525
405964 720082 509
713503 424433 509
206004 164978 365
46927 674868 509
741075 286747 509
303103 961097 525
247498 909539 525
604318 135241 470
489545 620375 470
214251 826460 509
464215 482862 413
217941 618690 470
822206 425048 509
558924 281048 470
942669 483038 525
434378 175889 449
307665 254295 407
767467 916481 525
202736 670769 509
393514 83390 443
73671 903194 525
754348 191985 509
918220 710418 525
687382 185966 509
272331 850762 525
668353 77985 509
748678 667888 504
830023 791883 468
57213 320542 443
871434 765744 525
791014 193513 509
427329 317200 449
781583 559278 509
661488 40477 509
784131 520077 509
323250 903370 525
856247 625269 525
424085 81814 449
267415 319600 407
452012 825830 509
836995 438937 509
263598 762642 509
491320 811365 509
193053 229299 386
151944 255264 443
9054 258070 443
245436 414834 449
194292 344098 443
120738 159217 383
334665 32076 443
116886 620692 470
55362 902220 525
115603 516902 470
181623 212850 373
973026 741707 525
509505 247145 449
641369 557102 509
383315 355842 423
817172 204894 509
360077 661512 509
646972 7202 509
903163 867580 445
153206 98946 375
149848 27416 375
179907 496303 449
162136 717414 509
757374 849173 525
333131 327028 353
953259 77389 525
303223 621662 470
317427 301492 384
770667 686684 504
855674 535602 525
630869 209084 509
402794 307943 441
399744 920646 525
739100 351657 509
885957 480614 525
467929 643308 509
628055 170258 509
967544 34693 525
980908 46955 525
4354 517563 470
43862 963482 525
303036 776317 509
768893 882946 525
272599 481961 449
298776 716530 509
331069 617967 470
358998 322013 441
581964 791452 509
501312 418055 444
522877 569444 452
578626 261498 470
628247 342508 509
425389 334164 449
429226 269367 449
419744 686183 509
323657 667958 509
282204 660544 509
450342 74543 449
212392 103741 383
958202 334017 525
78535 8436 351
152296 933761 525
487112 409824 449
91849 203485 383
50118 847153 525
88721 617284 470
553432 379178 470
17375 233422 443
70874 483805 449
472189 729984 509
26271 455455 449
464760 702656 509
368545 949804 525
242023 261227 363
567262 196280 470
335975 553975 470
295965 110481 443
576461 115551 470
212863 165652 373
89199 536030 470
881277 521538 525
510480 241347 449
387786 605420 470
598674 536570 452
792372 943856 525
429977 427258 374
146803 765943 509
384411 186837 443
746914 684651 504
265855 424744 449
502346 974478 525
167715 666295 509
328804 367199 441
183825 273633 443
424387 74450 449
937961 93870 525
914346 911533 401
802443 749099 468
207480 904845 525
265161 314573 407
58236 114503 354
778312 129291 509
52814 532281 470
72616 933641 525
961703 282390 525
943658 754643 525
357432 173768 443
86726 4099 351
290696 460576 449
301876 564105 470
184247 122667 383
650572 52875 509
607170 504645 470
512758 376677 470
562553 110407 470
46532 8289 324
428510 268046 449
22549 645902 509
194318 430546 449
802880 232569 509
143733 478877 449
235001 403377 441
550464 446291 470
274634 465531 449
628704 713862 504
736124 627845 504
593406 981989 525
846154 123874 525
574775 289795 470
439677 168641 449
419446 45855 449
410888 351256 449
439320 924089 525
979094 140862 525
140096 788468 509
181515 502416 449
326867 681417 509
184005 95428 383
384629 518779 470
475921 218823 449
887191 523995 525
972979 71718 525
486393 228881 449
492490 466655 413
611923 501017 470
559673 708822 509
925424 118213 525
341452 909137 525
316771 187629 443
995136 331916 525
388650 32846 443
375060 547311 470
358670 367564 410
349500 459974 449
610795 973117 525
941100 980637 458
944546 298861 525
413497 902172 525
144879 827155 509
832545 398205 509
736616 221013 509
975179 537881 525
330397 695357 509
959168 515239 525
241156 350919 441
743193 820732 468
296617 645900 509
128908 155091 375
947806 705438 525
595903 352741 470
663827 782504 504
310899 439164 449
6229 448543 449
320526 279114 389
226168 277750 443
741098 533798 509
869392 360662 525
25792 246496 443
778344 471307 509
32091 52902 340
852559 869302 419
987540 485249 525
958841 768602 525
762192 958253 525
807796 64264 509
78949 893296 525
200405 6534 383
904387 189887 525
94493 272497 443
379335 688920 509
817496 642682 504
670151 563770 509
433981 973636 525
739128 726790 424
682601 143142 509
595250 690176 509
267464 864805 525
400090 249161 441
147890 700534 509
999314 863733 507
802051 110040 509
946564 7021 525
768961 268091 509
507188 953047 525
263089 490434 449
378913 555277 470
982892 372847 525
873647 373849 525
59777 567436 470
253574 262899 363
469455 727868 509
597779 710009 509
20112 776344 509
286666 518875 470
237825 608672 470
87775 878186 525
812975 922986 525
776955 695263 504
632804 317745 509
367810 339268 441
909083 915816 476
383948 95054 443
446715 919002 525
471832 165227 449
46587 64500 340
736975 811383 468
543876 322022 470
575 468341 449
242790 244000 337
713363 222846 509
917938 247552 525
127278 836203 509
577083 646984 509
208204 734842 509
189280 167982 365
761811 995138 525
555749 881359 525
409669 508273 449
75358 375653 443
277323 991952 525
596018 783830 509
466779 592529 470
757098 869163 525
685810 425451 509
918657 306638 525
115371 781320 509
988294 769429 525
509152 412014 444
256728 197385 443
420333 408596 449
309309 745179 509
987395 796100 525
370162 582691 470
739712 667064 504
301485 320324 384
900676 621875 525
849918 70103 525
171730 290673 443
709865 749013 424
1379 621387 470
488120 99191 449
627150 890676 525
608687 639023 509
246862 558926 470
568839 983978 525
321770 139665 443
876631 766549 525
369983 104443 443
31158 958826 525
967742 958614 414
873869 925778 476
553375 329753 470
705343 454495 509
655399 372481 509
230505 289381 443
950104 291788 525
656488 404669 509
50434 355002 443
859618 69651 525
120066 263521 443
86384 840533 525
238504 133599 443
399755 298026 441
610573 277428 470
367697 401617 436
875358 762833 525
735198 207730 509
528095 859554 525
141068 820343 509
206731 948356 525
874689 765772 525
280499 649351 509
554724 88596 470
746319 279586 509
487420 67169 449
926549 631184 525
116926 246984 443
918834 670447 525
729889 884521 525
49456 353062 443
218879 704090 509
341629 368776 441
406164 117873 443
874240 723788 525
509581 607008 470
553256 256474 470
300790 462868 449
111840 448677 449
726710 768455 468
841916 94876 525
27957 732456 509
109957 561184 470
439568 693847 509
681966 172437 509
305400 480979 449
7381 623338 470
138077 486598 449
260721 160292 443
385603 717823 509
227236 768372 509
172268 113457 383
967578 465020 525
610585 771065 509
361002 62563 443
357340 988706 525
752501 160994 509
770634 981339 525
467383 475256 413
911225 441277 525
633806 854878 525
32923 704668 509
726039 847095 525
192772 484308 449
30161 381093 443
588473 392371 470
941859 999919 458
815681 60478 509
635494 222499 509
590245 988564 525
42497 962957 525
294194 194200 443
252745 950175 525
921797 806004 525
795035 226455 509
815024 443988 509
193275 592610 470
785560 930309 525
629052 743978 504
56005 334121 443
500066 80883 449
801040 44902 509
205890 128356 383
293840 910561 525
345060 176126 443
262779 962227 525
590302 809678 509
612905 794117 509
653537 975162 525
315122 345940 384
70343 385324 443
248057 615162 470
625820 416040 470
433334 245644 449
346382 649757 509
547292 741428 509
364407 510740 449
551883 963119 525
166962 764435 509
647472 460712 509
626088 77671 470
581929 640259 509
754272 412593 509
816659 180628 509
496505 528322 470
307608 760814 509
46407 377545 443
201728 413889 449
156253 372520 443
33045 654072 509
125997 133849 344
795375 568112 509
615799 389577 470
901231 116381 525
379325 674187 509
966133 615933 525
236145 731656 509
531470 786704 509
829196 824272 419
543633 42109 470
183092 817910 509
456029 835275 509
657761 138651 509
384331 289296 441
459255 181630 449
450439 742258 509
997434 226483 525
526865 960317 525
223520 663350 509
486196 551678 470
469937 659249 509
961626 703062 525
507364 419437 444
449642 620472 470
890308 196417 525
831720 472812 509
825615 333118 509
561828 324280 470
704301 529008 509
103309 163796 383
93255 192711 383
581303 905971 525
181283 919277 525
992709 119816 525
690614 706065 504
312765 276568 389
381488 519539 470
933164 113780 525
226303 226595 368
973221 591309 525
180317 956423 525
305133 8381 443
350815 80077 443
380796 357275 423
152711 890126 525
710089 548596 509
141186 968606 525
128661 710885 509
485679 536181 470
611061 153220 470
654321 350662 509
68561 707944 509
506806 969478 525
144516 290179 443
676933 713993 504
227489 660752 509
376958 974849 525
803313 819800 450
926713 560783 525
44875 518857 470
963813 853907 507
759768 121347 509
245237 889645 525
401616 972195 525
338024 826858 509
107972 633002 509
58792 397633 443
580203 176327 470
974918 638329 525
897858 65129 525
519272 201823 470
711624 464999 509
101889 214986 383
49394 984653 525
231737 4887 443
955438 496385 525
381572 146707 443
330072 162245 443
806521 367313 509
794938 507373 509
689933 75670 509
458079 239999 449
21810 446850 449
861551 342577 525
843263 640535 525
422863 618954 470
898781 471680 525
576115 672710 509
336036 918509 525
724784 194673 509
897943 452984 525
425348 102747 449
104962 46872 351
762708 810347 468
162027 87554 383
381497 189337 443
21258 556427 470
279141 363527 441
535748 697090 509
594083 516430 452
281214 814116 509
560299 696264 509
976892 200019 525
615041 578556 447
314919 108071 443
376437 285683 441
507533 805824 509
965580 98615 525
252430 890913 525
344410 260144 407
891798 834663 525
331833 900853 525
817002 519926 509
223703 254604 443
655608 25340 509
830998 195671 509
240931 510971 449
40958 427711 449
134499 536379 470
604792 928493 525
952783 353961 525
120669 768938 509
82952 780168 509
635897 352557 509
582198 960502 525
472303 699999 509
260374 229829 443
173989 235164 443
474014 636033 509
63113 935257 525
303117 448502 449
608903 221961 470
633224 566911 509
913979 613816 525
630506 122671 509
216083 844544 525
885714 870996 432
900611 211941 525
899835 533845 525
997264 811615 525
76988 445399 449
974582 242937 525
461136 199259 449
204282 336598 443
827549 910791 525
756675 813128 468
147810 345323 443
453896 923314 525
629200 963624 525
294003 677572 509
199500 709324 509
434402 364220 449
175692 574164 470
850740 616418 525
709226 955996 525
50386 207911 383
323989 57694 443
947412 639077 525
380128 285255 441
885997 670065 525
548100 862251 525
865562 460262 525
731259 904861 525
820753 460393 509
435956 24442 449
621688 439343 470
404384 813754 509
100466 393357 443
178260 998362 525
950994 647051 525
433043 966491 525
5940 48857 324
585509 54849 470
953269 255743 525
519568 275128 470
71695 657165 509
337388 849996 525
703435 210340 509
429877 275741 449
49728 447143 449
336704 245626 407
346093 781326 509
853506 936260 476
230468 997225 525
48453 562231 470
904664 275505 525
531211 442607 470
838367 20687 525
643531 255739 509
4979 253225 443
616982 136781 470
19875 707952 509
913620 368050 525
824538 43472 509
75840 508115 449
713744 92203 509
109804 606332 470
533327 116593 470
380488 449766 449
4368 708107 509
268544 560102 470
245090 596982 470
741926 230958 509
279701 499767 449
416769 634046 509
570531 295215 470
301172 489461 449
471342 135540 449
173936 868881 525
132438 550808 470
907120 387480 525
331201 327561 353
134463 684809 509
506189 166826 449
431669 378911 449
222732 480414 449
864940 800180 525
839089 66918 525
412729 848943 525
112629 304864 443
863693 522776 525
618440 678139 509
951775 156028 525
234793 929736 525
228203 899453 525
582779 811556 509
370349 783631 509
606272 77545 470
865488 834187 525
660033 610744 509
23828 902196 525
447195 454562 387
201917 800757 509
294471 257599 407
217629 384162 443
223223 333724 443
183592 877521 525
490869 69356 449
487346 192294 449
862106 321538 525
243402 615048 470
797939 388920 509
894489 377071 525
139082 358421 443
252189 494454 449
717799 658150 504
327963 51224 443
489363 996949 525
598309 472970 470
59970 717116 509
822809 578908 509
719432 633193 504
565792 216006 470
815468 425861 509
544836 129125 470
937132 117147 525
992107 635875 525
658134 216426 509
314433 385858 441
158339 386284 443
158495 978665 525
885897 880414 370
939272 263025 525
207749 105960 383
498571 830464 509
71246 941450 525
609598 846880 525
247958 415787 449
361410 51310 443
987417 53130 525
73893 235180 443
796600 874722 525
613958 484246 470
180944 400008 443
370291 999359 525
456744 410308 418
489542 986517 525
461035 948429 525
679187 100328 509
72388 617552 470
115034 811575 509
831816 54124 509
422896 980060 525
424159 242450 449
90620 63913 351
544176 595769 452
814943 789772 468
173051 503945 449
84084 184395 383
226045 544416 470
234165 711612 509
443907 159669 449
806223 634511 504
986151 127370 525
428804 125074 449
224295 978117 525
951341 734182 525
450514 193320 449
349292 169525 443
154967 261096 443
98196 277263 443
780720 686082 504
253079 740980 509
293428 465465 449
950197 292941 525
807690 721843 468
327606 339059 366
553085 452046 470
679254 891079 525
838537 985934 507
94220 490315 449
629408 438995 509
322299 406977 441
514289 423968 470
691614 589632 509
990724 904034 507
536583 284270 470
523010 967163 525
177350 441903 449
893606 986460 507
981747 631790 525
342744 917016 525
864103 907344 445
396486 100085 443
26741 194413 383
457287 837732 509
833709 484486 509
413426 955732 525
871394 512888 525
40984 928547 525
270526 625092 470
33466 120549 354
636169 156390 509
442179 848432 525
674062 422249 509
826900 706518 468
487008 492293 382
200427 24049 383
169527 554697 470
352455 635346 509
83312 595405 470
502982 887357 525
832494 517830 509
506833 870970 525
840711 295737 525
26350 862408 525
443953 245209 449
113269 752584 509
440731 163621 449
251715 669721 509
933463 84015 525
865077 492782 525
369609 327210 441
528047 965721 525
431335 484064 444
844094 973964 507
195532 430950 449
618099 559896 447
722533 596344 509
151898 815176 509
701112 718336 504
455889 872649 525
957958 607222 525
96625 524847 470
932055 647730 525
412862 27272 449
624540 821576 509
25799 519553 470
454120 210975 449
839576 395092 525
210256 120529 383
514384 801584 509
659416 165970 509
699576 552906 509
334641 361385 441
469771 556738 470
339146 878197 525
175139 778270 509
581794 21356 470
633223 354978 509
532800 899840 525
416117 427649 418
379015 424319 449
101515 919900 525
155289 140099 375
607272 698355 509
507049 976796 525
6440 854631 525
238761 88146 443
927042 985933 507
595265 40577 470
